<?xml version="1.0" encoding="utf-8"?>
<!-- Generator: Adobe Illustrator 26.4.1, SVG Export Plug-In . SVG Version: 6.00 Build 0)  -->
<svg version="1.1" id="Layer_1" xmlns="http://www.w3.org/2000/svg" xmlns:xlink="http://www.w3.org/1999/xlink" x="0px" y="0px"
	 viewBox="0 0 772 648" enable-background="new 0 0 772 648" xml:space="preserve">
<g>
	<linearGradient id="SVGID_1_" gradientUnits="userSpaceOnUse" x1="227.6698" y1="288.1377" x2="73.5321" y2="432.1319">
		<stop  offset="0.0177" style="stop-color:#241F35"/>
		<stop  offset="0.9145" style="stop-color:#241F35;stop-opacity:0"/>
	</linearGradient>
	<path fill="url(#SVGID_1_)" d="M257.328,241.861l-123.799,27.83C83.73,281.902,37.212,307.628,0,345.463v149.51l65.215,40.972
		c1.092-22.44,7.781-44.905,20.555-65.249c19.188-30.556,48.652-50.824,81.118-59.14l125.558-28.228L257.328,241.861z"/>
	
		<linearGradient id="SVGID_00000116935748437292403680000013009203312047370630_" gradientUnits="userSpaceOnUse" x1="213.6074" y1="200.4075" x2="463.5656" y2="453.8602">
		<stop  offset="0" style="stop-color:#B593FF;stop-opacity:0"/>
		<stop  offset="0.0707" style="stop-color:#B593FF;stop-opacity:0.0283"/>
		<stop  offset="0.5" style="stop-color:#B593FF;stop-opacity:0.2"/>
		<stop  offset="0.9293" style="stop-color:#B593FF;stop-opacity:0.0283"/>
		<stop  offset="1" style="stop-color:#B593FF;stop-opacity:0"/>
	</linearGradient>
	<path fill="url(#SVGID_00000116935748437292403680000013009203312047370630_)" d="M256.883,186.654l56.285,242.57l19.009,81.672
		c8.294,34.29,3.311,71.76-16.888,103.926c-8.134,12.952-18.119,24.048-29.391,33.177H461.42
		c22.351-55.333,25.886-115.093,12.518-170.838l-18.18-78.15l-56.354-242.983l-19.63-84.408
		c-4.604-23.515-3.032-48.274,5.321-71.621h-149.95c-5.703,34.983-4.68,70.507,2.658,104.664L256.883,186.654z"/>
	
		<linearGradient id="SVGID_00000001636490799477773300000000230926981977459360_" gradientUnits="userSpaceOnUse" x1="485.0382" y1="325.3523" x2="637.8956" y2="139.5645">
		<stop  offset="0" style="stop-color:#241F35"/>
		<stop  offset="1" style="stop-color:#241F35;stop-opacity:0"/>
	</linearGradient>
	<path fill="url(#SVGID_00000001636490799477773300000000230926981977459360_)" d="M772,130.178l-123.979-77.78
		c-1.085,22.457-7.774,44.941-20.559,65.3c-20.202,32.171-51.796,52.937-86.293,60.357l-118.722,26.688l33.353,141.86l116.48-26.187
		c71.421-15.493,136.804-58.556,178.647-125.188c8.233-13.111,15.245-26.648,21.073-40.475V130.178z"/>
</g>
<rect x="766.315" y="158.698" transform="matrix(0.5318 -0.8469 0.8469 0.5318 223.6623 724.5312)" fill="#E7E4F2" width="1.5" height="2.595"/>
<rect x="759.722" y="154.558" transform="matrix(0.5318 -0.8469 0.8469 0.5318 224.0817 717.0093)" fill="#E7E4F2" width="1.5" height="2.595"/>
<rect x="753.129" y="150.417" transform="matrix(0.5318 -0.8469 0.8469 0.5318 224.4898 709.4764)" fill="#E7E4F2" width="1.5" height="2.595"/>
<rect x="746.536" y="146.277" transform="matrix(0.5318 -0.8469 0.8469 0.5318 224.898 701.9438)" fill="#E7E4F2" width="1.5" height="2.595"/>
<rect x="739.943" y="142.137" transform="matrix(0.5318 -0.8469 0.8469 0.5318 225.3173 694.4218)" fill="#E7E4F2" width="1.5" height="2.595"/>
<rect x="733.349" y="137.996" transform="matrix(0.5318 -0.8469 0.8469 0.5318 225.7584 686.92)" fill="#E7E4F2" width="1.5" height="2.595"/>
<rect x="726.756" y="133.856" transform="matrix(0.5318 -0.8469 0.8469 0.5318 226.1776 679.3977)" fill="#E7E4F2" width="1.5" height="2.595"/>
<rect x="720.163" y="129.716" transform="matrix(0.5318 -0.8469 0.8469 0.5318 226.5861 671.8655)" fill="#E7E4F2" width="1.5" height="2.595"/>
<rect x="713.57" y="125.576" transform="matrix(0.5318 -0.8469 0.8469 0.5318 226.9946 664.3336)" fill="#E7E4F2" width="1.5" height="2.595"/>
<rect x="706.977" y="121.435" transform="matrix(0.5318 -0.8469 0.8469 0.5318 227.4248 656.8215)" fill="#E7E4F2" width="1.5" height="2.595"/>
<rect x="700.383" y="117.295" transform="matrix(0.5318 -0.8469 0.8469 0.5318 227.8546 649.3088)" fill="#E7E4F2" width="1.5" height="2.595"/>
<rect x="693.79" y="113.155" transform="matrix(0.5318 -0.8469 0.8469 0.5318 228.2528 641.7679)" fill="#E7E4F2" width="1.5" height="2.595"/>
<rect x="687.197" y="109.015" transform="matrix(0.5318 -0.8469 0.8469 0.5318 228.6721 634.2459)" fill="#E7E4F2" width="1.5" height="2.595"/>
<rect x="680.604" y="104.874" transform="matrix(0.5318 -0.8469 0.8469 0.5318 229.0914 626.7238)" fill="#E7E4F2" width="1.5" height="2.595"/>
<rect x="674.01" y="100.734" transform="matrix(0.5318 -0.8469 0.8469 0.5318 229.5211 619.2107)" fill="#E7E4F2" width="1.5" height="2.595"/>
<rect x="667.417" y="96.594" transform="matrix(0.5318 -0.8469 0.8469 0.5318 229.9301 611.6797)" fill="#E7E4F2" width="1.5" height="2.595"/>
<rect x="660.824" y="92.454" transform="matrix(0.5318 -0.8469 0.8469 0.5318 230.3496 604.1581)" fill="#E7E4F2" width="1.5" height="2.595"/>
<rect x="654.231" y="88.313" transform="matrix(0.5318 -0.8469 0.8469 0.5318 230.769 596.6361)" fill="#E7E4F2" width="1.5" height="2.595"/>
<rect x="647.638" y="84.173" transform="matrix(0.5318 -0.8469 0.8469 0.5318 231.1883 589.114)" fill="#E7E4F2" width="1.5" height="2.595"/>
<rect x="734.75" y="179.635" transform="matrix(0.5318 -0.8469 0.8469 0.5318 186.6273 710.076)" fill="#B593FF" width="1.5" height="13.237"/>
<rect x="719.803" y="170.25" transform="matrix(0.5318 -0.8469 0.8469 0.5318 187.5799 693.0256)" fill="#B593FF" width="1.5" height="13.237"/>
<rect x="704.856" y="160.864" transform="matrix(0.5318 -0.8469 0.8469 0.5318 188.5305 675.9731)" fill="#B593FF" width="1.5" height="13.237"/>
<rect x="689.91" y="151.477" transform="matrix(0.5318 -0.8469 0.8469 0.5318 189.491 658.9307)" fill="#B593FF" width="1.5" height="13.237"/>
<rect x="674.963" y="142.092" transform="matrix(0.5318 -0.8469 0.8469 0.5318 190.4299 641.8666)" fill="#B593FF" width="1.5" height="13.237"/>
<rect x="660.017" y="132.706" transform="matrix(0.5318 -0.8469 0.8469 0.5318 191.3805 624.8142)" fill="#B593FF" width="1.5" height="13.237"/>
<rect x="645.07" y="123.32" transform="matrix(0.5318 -0.8469 0.8469 0.5318 192.3311 607.7618)" fill="#B593FF" width="1.5" height="13.237"/>
<g>
	
		<rect x="630.701" y="195.777" transform="matrix(0.5318 -0.8469 0.8469 0.5318 115.1983 634.5192)" fill="#E7E4F2" width="1.5" height="34.598"/>
</g>
<rect x="658.595" y="274.077" transform="matrix(0.5318 -0.8469 0.8469 0.5318 74.4006 687.9178)" fill="#FF9D73" width="1.5" height="5.19"/>
<rect x="649.804" y="268.556" transform="matrix(0.5318 -0.8469 0.8469 0.5318 74.9637 677.894)" fill="#FF9D73" width="1.5" height="5.19"/>
<rect x="641.013" y="263.036" transform="matrix(0.5318 -0.8469 0.8469 0.5318 75.5187 667.8588)" fill="#FF9D73" width="1.5" height="5.19"/>
<rect x="632.222" y="257.516" transform="matrix(0.5318 -0.8469 0.8469 0.5318 76.0817 657.8349)" fill="#FF9D73" width="1.5" height="5.19"/>
<rect x="623.431" y="251.996" transform="matrix(0.5318 -0.8468 0.8468 0.5318 76.6212 647.7781)" fill="#FF9D73" width="1.5" height="5.19"/>
<rect x="614.64" y="246.475" transform="matrix(0.5318 -0.8469 0.8469 0.5318 77.1961 637.7708)" fill="#FF9D73" width="1.5" height="5.19"/>
<rect x="605.849" y="240.955" transform="matrix(0.5318 -0.8469 0.8469 0.5318 77.759 627.7466)" fill="#FF9D73" width="1.5" height="5.19"/>
<rect x="597.058" y="235.434" transform="matrix(0.5318 -0.8469 0.8469 0.5318 78.318 617.717)" fill="#FF9D73" width="1.5" height="5.19"/>
<rect x="588.267" y="229.914" transform="matrix(0.5318 -0.8469 0.8469 0.5318 78.877 607.6874)" fill="#FF9D73" width="1.5" height="5.19"/>
<rect x="579.476" y="224.394" transform="matrix(0.5318 -0.8469 0.8469 0.5318 79.4323 597.6528)" fill="#FF9D73" width="1.5" height="5.19"/>
<rect x="570.686" y="218.873" transform="matrix(0.5318 -0.8469 0.8469 0.5318 79.9953 587.6287)" fill="#FF9D73" width="1.5" height="5.19"/>
<rect x="561.894" y="213.353" transform="matrix(0.5318 -0.8469 0.8469 0.5318 80.5543 577.5991)" fill="#FF9D73" width="1.5" height="5.19"/>
<rect x="553.103" y="207.833" transform="matrix(0.5318 -0.8469 0.8469 0.5318 81.1062 567.5601)" fill="#FF9D73" width="1.5" height="5.19"/>
<rect x="544.312" y="202.312" transform="matrix(0.5318 -0.8469 0.8469 0.5318 81.6688 557.5353)" fill="#FF9D73" width="1.5" height="5.19"/>
<rect x="535.521" y="196.792" transform="matrix(0.5318 -0.8469 0.8469 0.5318 82.2278 547.5059)" fill="#FF9D73" width="1.5" height="5.19"/>
<rect x="526.731" y="191.272" transform="matrix(0.5318 -0.8469 0.8469 0.5318 82.7905 537.4812)" fill="#FF9D73" width="1.5" height="5.19"/>
<rect x="517.94" y="185.751" transform="matrix(0.5318 -0.8469 0.8469 0.5318 83.3461 527.4473)" fill="#FF9D73" width="1.5" height="5.19"/>
<rect x="383.502" y="102.621" transform="matrix(0.5318 -0.8469 0.8469 0.5318 91.9017 374.0756)" fill="#E7E4F2" width="1.5" height="2.608"/>
<rect x="376.877" y="98.461" transform="matrix(0.5317 -0.8469 0.8469 0.5317 92.3336 366.5284)" fill="#E7E4F2" width="1.5" height="2.608"/>
<rect x="370.252" y="94.301" transform="matrix(0.5318 -0.8469 0.8469 0.5318 92.7495 358.9642)" fill="#E7E4F2" width="1.5" height="2.608"/>
<rect x="363.627" y="90.14" transform="matrix(0.5318 -0.8469 0.8469 0.5318 93.1655 351.4002)" fill="#E7E4F2" width="1.5" height="2.608"/>
<rect x="357.002" y="85.98" transform="matrix(0.5317 -0.8469 0.8469 0.5317 93.597 343.8522)" fill="#E7E4F2" width="1.5" height="2.608"/>
<rect x="350.377" y="81.82" transform="matrix(0.5318 -0.8469 0.8469 0.5318 94.0131 336.2883)" fill="#E7E4F2" width="1.5" height="2.608"/>
<rect x="343.752" y="77.66" transform="matrix(0.5318 -0.8469 0.8469 0.5318 94.4293 328.7247)" fill="#E7E4F2" width="1.5" height="2.608"/>
<rect x="337.127" y="73.5" transform="matrix(0.5317 -0.8469 0.8469 0.5317 94.8604 321.1759)" fill="#E7E4F2" width="1.5" height="2.608"/>
<rect x="330.502" y="69.339" transform="matrix(0.5318 -0.8469 0.8469 0.5318 95.2767 313.6125)" fill="#E7E4F2" width="1.5" height="2.608"/>
<rect x="323.877" y="65.179" transform="matrix(0.5318 -0.8469 0.8469 0.5318 95.6931 306.0493)" fill="#E7E4F2" width="1.5" height="2.608"/>
<rect x="317.252" y="61.019" transform="matrix(0.5317 -0.8469 0.8469 0.5317 96.1237 298.4996)" fill="#E7E4F2" width="1.5" height="2.608"/>
<rect x="310.627" y="56.859" transform="matrix(0.5318 -0.8469 0.8469 0.5318 96.5403 290.9366)" fill="#E7E4F2" width="1.5" height="2.608"/>
<rect x="304.002" y="52.698" transform="matrix(0.5318 -0.8469 0.8469 0.5318 96.9569 283.3739)" fill="#E7E4F2" width="1.5" height="2.608"/>
<rect x="297.377" y="48.538" transform="matrix(0.5317 -0.8469 0.8469 0.5317 97.3871 275.8233)" fill="#E7E4F2" width="1.5" height="2.608"/>
<rect x="290.752" y="44.378" transform="matrix(0.5318 -0.8469 0.8469 0.5318 97.7951 268.2531)" fill="#E7E4F2" width="1.5" height="2.608"/>
<rect x="284.127" y="40.218" transform="matrix(0.5318 -0.8469 0.8469 0.5318 98.2207 260.6984)" fill="#E7E4F2" width="1.5" height="2.608"/>
<rect x="277.502" y="36.058" transform="matrix(0.5318 -0.8469 0.8469 0.5318 98.642 253.1399)" fill="#E7E4F2" width="1.5" height="2.608"/>
<rect x="270.877" y="31.897" transform="matrix(0.5318 -0.8469 0.8469 0.5318 99.0591 245.578)" fill="#E7E4F2" width="1.5" height="2.608"/>
<rect x="264.252" y="27.737" transform="matrix(0.5318 -0.8469 0.8469 0.5318 99.4887 238.0263)" fill="#E7E4F2" width="1.5" height="2.608"/>
<rect x="257.627" y="23.577" transform="matrix(0.5318 -0.8469 0.8469 0.5318 99.9058 230.4645)" fill="#E7E4F2" width="1.5" height="2.608"/>
<rect x="251.002" y="19.417" transform="matrix(0.5317 -0.8469 0.8469 0.5317 100.3351 222.912)" fill="#E7E4F2" width="1.5" height="2.608"/>
<rect x="244.377" y="15.257" transform="matrix(0.5319 -0.8468 0.8468 0.5319 100.7286 215.3334)" fill="#E7E4F2" width="1.5" height="2.607"/>
<rect x="237.752" y="11.096" transform="matrix(0.5318 -0.8468 0.8468 0.5318 101.1541 207.7783)" fill="#E7E4F2" width="1.5" height="2.607"/>
<rect x="389.371" y="143.524" transform="matrix(0.5318 -0.8469 0.8469 0.5318 52.4976 402.3392)" fill="#FF9D73" width="1.5" height="20.335"/>
<rect x="367.845" y="130.006" transform="matrix(0.5318 -0.8469 0.8469 0.5318 53.8679 377.7823)" fill="#FF9D73" width="1.5" height="20.334"/>
<rect x="346.319" y="116.489" transform="matrix(0.5318 -0.8469 0.8469 0.5318 55.237 353.2238)" fill="#FF9D73" width="1.5" height="20.334"/>
<rect x="324.793" y="102.972" transform="matrix(0.5318 -0.8469 0.8469 0.5318 56.606 328.6653)" fill="#FF9D73" width="1.5" height="20.334"/>
<rect x="303.268" y="89.454" transform="matrix(0.5318 -0.8469 0.8469 0.5318 57.975 304.1068)" fill="#FF9D73" width="1.5" height="20.334"/>
<rect x="281.742" y="75.937" transform="matrix(0.5318 -0.8469 0.8469 0.5318 59.3436 279.5477)" fill="#FF9D73" width="1.5" height="20.335"/>
<rect x="260.216" y="62.42" transform="matrix(0.5318 -0.8469 0.8469 0.5318 60.7122 254.9887)" fill="#FF9D73" width="1.5" height="20.335"/>
<rect x="238.69" y="48.902" transform="matrix(0.5318 -0.8469 0.8469 0.5318 62.0813 230.4303)" fill="#FF9D73" width="1.5" height="20.335"/>
<rect x="402.105" y="203.346" transform="matrix(0.5318 -0.8469 0.8469 0.5318 12.6624 438.4378)" fill="#5F4AA0" width="1.5" height="8.841"/>
<rect x="390.874" y="196.294" transform="matrix(0.5318 -0.8469 0.8469 0.5318 13.3794 425.6292)" fill="#5F4AA0" width="1.5" height="8.841"/>
<rect x="379.643" y="189.241" transform="matrix(0.5318 -0.8469 0.8469 0.5318 14.0988 412.8244)" fill="#5F4AA0" width="1.5" height="8.842"/>
<rect x="368.412" y="182.189" transform="matrix(0.5318 -0.8469 0.8469 0.5318 14.8066 400.0003)" fill="#5F4AA0" width="1.5" height="8.841"/>
<rect x="357.181" y="175.136" transform="matrix(0.5318 -0.8469 0.8469 0.5318 15.521 387.1871)" fill="#5F4AA0" width="1.5" height="8.841"/>
<rect x="345.95" y="168.083" transform="matrix(0.5318 -0.8469 0.8469 0.5318 16.2353 374.374)" fill="#5F4AA0" width="1.5" height="8.841"/>
<rect x="334.718" y="161.031" transform="matrix(0.5318 -0.8469 0.8469 0.5318 16.9495 361.5605)" fill="#5F4AA0" width="1.5" height="8.841"/>
<rect x="323.487" y="153.978" transform="matrix(0.5318 -0.8469 0.8469 0.5318 17.665 348.7491)" fill="#5F4AA0" width="1.5" height="8.841"/>
<rect x="312.256" y="146.925" transform="matrix(0.5318 -0.8469 0.8469 0.5318 18.3793 335.9359)" fill="#5F4AA0" width="1.5" height="8.841"/>
<rect x="301.025" y="139.872" transform="matrix(0.5318 -0.8469 0.8469 0.5318 19.0988 323.1308)" fill="#5F4AA0" width="1.5" height="8.842"/>
<rect x="289.794" y="132.82" transform="matrix(0.5318 -0.8469 0.8469 0.5318 19.8068 310.3075)" fill="#5F4AA0" width="1.5" height="8.841"/>
<rect x="278.563" y="125.767" transform="matrix(0.5318 -0.8469 0.8469 0.5318 20.5201 297.4928)" fill="#5F4AA0" width="1.5" height="8.841"/>
<rect x="267.332" y="118.715" transform="matrix(0.5318 -0.8469 0.8469 0.5318 21.2355 284.6812)" fill="#5F4AA0" width="1.5" height="8.841"/>
<rect x="256.101" y="111.662" transform="matrix(0.5318 -0.8469 0.8469 0.5318 21.9543 271.8748)" fill="#5F4AA0" width="1.5" height="8.842"/>
<rect x="244.87" y="104.609" transform="matrix(0.5318 -0.8469 0.8469 0.5318 22.6631 259.0532)" fill="#5F4AA0" width="1.5" height="8.841"/>
<rect x="502.424" y="308.074" transform="matrix(0.5318 -0.8469 0.8469 0.5318 -32.7408 574.4667)" fill="#B593FF" width="1.5" height="17.539"/>
<rect x="483.857" y="296.415" transform="matrix(0.5318 -0.8469 0.8469 0.5318 -31.5583 553.2872)" fill="#B593FF" width="1.5" height="17.539"/>
<rect x="465.29" y="284.755" transform="matrix(0.5318 -0.8469 0.8469 0.5318 -30.374 532.1117)" fill="#B593FF" width="1.5" height="17.54"/>
<rect x="446.723" y="273.096" transform="matrix(0.5318 -0.8469 0.8469 0.5318 -29.1974 510.9201)" fill="#B593FF" width="1.5" height="17.539"/>
<g>
	
		<rect x="401.615" y="289.79" transform="matrix(0.5318 -0.8469 0.8469 0.5318 -65.3509 481.0363)" fill="#FF9D73" width="1.5" height="19.66"/>
</g>
<g>
	
		<rect x="370.842" y="260.259" transform="matrix(0.5318 -0.8469 0.8469 0.5318 -63.3947 445.9255)" fill="#6FDAC9" width="1.5" height="40.073"/>
</g>
<g>
	
		<rect x="324.635" y="238.286" transform="matrix(0.5318 -0.8469 0.8469 0.5318 -60.4561 393.2087)" fill="#FF9D73" width="1.5" height="25.988"/>
</g>
<g>
	
		<rect x="298.367" y="223.23" transform="matrix(0.5318 -0.8469 0.8469 0.5318 -58.7857 363.2381)" fill="#E7E4F2" width="1.5" height="23.109"/>
</g>
<g>
	
		<rect x="344.84" y="260.837" transform="matrix(0.5318 -0.8469 0.8469 0.5318 -61.7409 416.2591)" fill="#E7E4F2" width="1.5" height="6.26"/>
</g>
<rect x="444.262" y="371.193" transform="matrix(0.5318 -0.8469 0.8469 0.5318 -107.0926 551.249)" fill="#B593FF" width="1.5" height="2.576"/>
<rect x="437.718" y="367.083" transform="matrix(0.5318 -0.8469 0.8469 0.5318 -106.6656 543.8161)" fill="#B593FF" width="1.5" height="2.576"/>
<rect x="431.174" y="362.974" transform="matrix(0.5319 -0.8468 0.8468 0.5319 -106.2669 536.2955)" fill="#B593FF" width="1.5" height="2.576"/>
<rect x="424.629" y="358.864" transform="matrix(0.5318 -0.8469 0.8469 0.5318 -105.8334 528.8833)" fill="#B593FF" width="1.5" height="2.576"/>
<rect x="418.085" y="354.755" transform="matrix(0.5318 -0.8469 0.8469 0.5318 -105.4174 521.4167)" fill="#B593FF" width="1.5" height="2.576"/>
<rect x="411.541" y="350.645" transform="matrix(0.5319 -0.8468 0.8468 0.5319 -105.0177 513.8982)" fill="#B593FF" width="1.5" height="2.576"/>
<rect x="404.997" y="346.536" transform="matrix(0.5318 -0.8469 0.8469 0.5318 -104.5853 506.4839)" fill="#B593FF" width="1.5" height="2.576"/>
<rect x="398.452" y="342.426" transform="matrix(0.5318 -0.8469 0.8469 0.5318 -104.1785 498.987)" fill="#B593FF" width="1.5" height="2.576"/>
<rect x="391.908" y="338.317" transform="matrix(0.5317 -0.8469 0.8469 0.5317 -103.7469 491.571)" fill="#B593FF" width="1.5" height="2.576"/>
<rect x="385.364" y="334.207" transform="matrix(0.5318 -0.8469 0.8469 0.5318 -103.3459 484.055)" fill="#B593FF" width="1.5" height="2.576"/>
<rect x="378.82" y="330.098" transform="matrix(0.5319 -0.8468 0.8468 0.5319 -102.9355 476.5695)" fill="#B593FF" width="1.5" height="2.576"/>
<rect x="372.275" y="325.988" transform="matrix(0.5318 -0.8469 0.8469 0.5318 -102.5048 469.1517)" fill="#B593FF" width="1.5" height="2.576"/>
<rect x="365.731" y="321.879" transform="matrix(0.5319 -0.8468 0.8468 0.5319 -102.1026 461.6381)" fill="#B593FF" width="1.5" height="2.576"/>
<rect x="359.187" y="317.769" transform="matrix(0.5318 -0.8469 0.8469 0.5318 -101.6726 454.2189)" fill="#B593FF" width="1.5" height="2.576"/>
<rect x="352.643" y="313.66" transform="matrix(0.5319 -0.8468 0.8468 0.5319 -101.2697 446.7067)" fill="#B593FF" width="1.5" height="2.576"/>
<rect x="346.098" y="309.55" transform="matrix(0.5319 -0.8468 0.8468 0.5319 -100.8534 439.2408)" fill="#B593FF" width="1.5" height="2.576"/>
<rect x="339.554" y="305.441" transform="matrix(0.5318 -0.8469 0.8469 0.5318 -100.4244 431.8195)" fill="#B593FF" width="1.5" height="2.576"/>
<rect x="333.01" y="301.331" transform="matrix(0.5318 -0.8469 0.8469 0.5318 -100.0156 424.3268)" fill="#B593FF" width="1.5" height="2.576"/>
<rect x="326.466" y="297.222" transform="matrix(0.5317 -0.8469 0.8469 0.5317 -99.5874 416.9038)" fill="#B593FF" width="1.5" height="2.576"/>
<rect x="319.922" y="293.112" transform="matrix(0.5318 -0.8469 0.8469 0.5318 -99.183 409.3948)" fill="#B593FF" width="1.5" height="2.576"/>
<rect x="313.377" y="289.003" transform="matrix(0.5318 -0.8468 0.8468 0.5318 -98.769 401.9203)" fill="#B593FF" width="1.5" height="2.576"/>
<rect x="306.833" y="284.893" transform="matrix(0.5318 -0.8469 0.8469 0.5318 -98.3417 394.4955)" fill="#B593FF" width="1.5" height="2.576"/>
<rect x="300.289" y="280.784" transform="matrix(0.5318 -0.8468 0.8468 0.5318 -97.9363 386.9887)" fill="#B593FF" width="1.5" height="2.576"/>
<rect x="293.745" y="276.674" transform="matrix(0.5318 -0.8469 0.8469 0.5318 -97.5117 379.5545)" fill="#B593FF" width="1.5" height="2.576"/>
<rect x="287.2" y="272.565" transform="matrix(0.5319 -0.8468 0.8468 0.5319 -97.1055 372.0493)" fill="#B593FF" width="1.5" height="2.576"/>
<rect x="280.656" y="268.455" transform="matrix(0.5318 -0.8469 0.8469 0.5318 -96.6776 364.6293)" fill="#B593FF" width="1.5" height="2.576"/>
<rect x="264.98" y="303.379" transform="matrix(0.5318 -0.8469 0.8469 0.5318 -134.7075 368.313)" fill="#6FDAC9" width="1.5" height="5.202"/>
<rect x="256.171" y="297.846" transform="matrix(0.5318 -0.8469 0.8469 0.5318 -134.1501 358.2422)" fill="#6FDAC9" width="1.5" height="5.201"/>
<rect x="247.361" y="292.314" transform="matrix(0.5318 -0.8469 0.8469 0.5318 -133.5909 348.1835)" fill="#6FDAC9" width="1.5" height="5.201"/>
<rect x="238.551" y="286.782" transform="matrix(0.5318 -0.8469 0.8469 0.5318 -133.0295 338.14)" fill="#6FDAC9" width="1.5" height="5.201"/>
<rect x="229.74" y="281.249" transform="matrix(0.5318 -0.8469 0.8469 0.5318 -132.4696 328.0854)" fill="#6FDAC9" width="1.5" height="5.201"/>
<rect x="220.93" y="275.717" transform="matrix(0.5318 -0.8469 0.8469 0.5318 -131.9092 318.0344)" fill="#6FDAC9" width="1.5" height="5.201"/>
<rect x="212.121" y="270.185" transform="matrix(0.5318 -0.8469 0.8469 0.5318 -131.3462 308.0076)" fill="#6FDAC9" width="1.5" height="5.202"/>
<rect x="203.311" y="264.652" transform="matrix(0.5318 -0.8469 0.8469 0.5318 -130.7865 297.9527)" fill="#6FDAC9" width="1.5" height="5.202"/>
<rect x="194.5" y="259.12" transform="matrix(0.5318 -0.8469 0.8469 0.5318 -130.2269 287.8947)" fill="#6FDAC9" width="1.5" height="5.202"/>
<g>
	
		<rect x="200.591" y="339.294" transform="matrix(0.5318 -0.8469 0.8469 0.5318 -208.6627 337.9883)" fill="#E7E4F2" width="1.5" height="36.825"/>
</g>
<g>
	
		<rect x="128.478" y="298.436" transform="matrix(0.5318 -0.8469 0.8469 0.5318 -204.0763 255.7157)" fill="#E7E4F2" width="1.5" height="27.972"/>
</g>
<g>
	
		<rect x="162.886" y="315.065" transform="matrix(0.5318 -0.8469 0.8469 0.5318 -206.2645 294.9697)" fill="#FF9D73" width="1.5" height="37.928"/>
</g>
<g>
	
		<rect x="476.119" y="574.211" transform="matrix(0.5318 -0.8469 0.8469 0.5318 -265.209 673.9148)" fill="#E6E3F1" width="1.5" height="5.19"/>
	
		<rect x="467.328" y="568.691" transform="matrix(0.5318 -0.8469 0.8469 0.5318 -264.6497 663.8856)" fill="#E6E3F1" width="1.5" height="5.19"/>
	
		<rect x="458.537" y="563.17" transform="matrix(0.5318 -0.8469 0.8469 0.5318 -264.0925 653.8416)" fill="#E6E3F1" width="1.5" height="5.19"/>
	
		<rect x="449.746" y="557.65" transform="matrix(0.5318 -0.8469 0.8469 0.5318 -263.5317 643.8265)" fill="#E6E3F1" width="1.5" height="5.19"/>
	
		<rect x="440.955" y="552.13" transform="matrix(0.5318 -0.8469 0.8469 0.5318 -262.9727 633.7969)" fill="#E6E3F1" width="1.5" height="5.19"/>
	
		<rect x="432.164" y="546.609" transform="matrix(0.5318 -0.8469 0.8469 0.5318 -262.4152 623.7535)" fill="#E6E3F1" width="1.5" height="5.19"/>
	
		<rect x="423.373" y="541.089" transform="matrix(0.5318 -0.8468 0.8468 0.5318 -261.8581 613.7036)" fill="#E6E3F1" width="1.5" height="5.19"/>
	
		<rect x="414.582" y="535.569" transform="matrix(0.5318 -0.8469 0.8469 0.5318 -261.2954 603.7086)" fill="#E6E3F1" width="1.5" height="5.19"/>
	
		<rect x="405.791" y="530.048" transform="matrix(0.5318 -0.8469 0.8469 0.5318 -260.7376 593.6657)" fill="#E6E3F1" width="1.5" height="5.19"/>
	
		<rect x="397" y="524.528" transform="matrix(0.5318 -0.8469 0.8469 0.5318 -260.1774 583.6494)" fill="#E6E3F1" width="1.5" height="5.19"/>
	
		<rect x="388.209" y="519.008" transform="matrix(0.5318 -0.8469 0.8469 0.5318 -259.6184 573.6198)" fill="#E6E3F1" width="1.5" height="5.19"/>
	
		<rect x="379.418" y="513.487" transform="matrix(0.5318 -0.8469 0.8469 0.5318 -259.0603 563.5775)" fill="#E6E3F1" width="1.5" height="5.19"/>
	
		<rect x="370.628" y="507.967" transform="matrix(0.5318 -0.8469 0.8469 0.5318 -258.5002 553.5611)" fill="#E6E3F1" width="1.5" height="5.19"/>
	
		<rect x="361.837" y="502.447" transform="matrix(0.5318 -0.8469 0.8469 0.5318 -257.9411 543.5315)" fill="#E6E3F1" width="1.5" height="5.19"/>
	
		<rect x="353.046" y="496.926" transform="matrix(0.5318 -0.8469 0.8469 0.5318 -257.3828 533.4897)" fill="#E6E3F1" width="1.5" height="5.19"/>
	
		<rect x="344.255" y="491.406" transform="matrix(0.5318 -0.8469 0.8469 0.5318 -256.8231 523.4724)" fill="#E6E3F1" width="1.5" height="5.19"/>
	
		<rect x="335.464" y="485.886" transform="matrix(0.5318 -0.8469 0.8469 0.5318 -256.2641 513.4428)" fill="#E6E3F1" width="1.5" height="5.19"/>
	
		<rect x="326.673" y="480.365" transform="matrix(0.5318 -0.8469 0.8469 0.5318 -255.7053 503.402)" fill="#E6E3F1" width="1.5" height="5.19"/>
</g>
<rect x="165.258" y="355.647" transform="matrix(0.5318 -0.8469 0.8469 0.5318 -245.4393 319.2517)" fill="#6FDAC9" width="1.5" height="51.902"/>
<rect x="116.908" y="325.285" transform="matrix(0.5318 -0.8469 0.8469 0.5318 -242.3643 264.0901)" fill="#6FDAC9" width="1.5" height="51.902"/>
<rect x="68.558" y="294.924" transform="matrix(0.5318 -0.8469 0.8469 0.5318 -239.2893 208.9284)" fill="#6FDAC9" width="1.5" height="51.902"/>
<rect x="142.998" y="412.403" transform="matrix(0.5318 -0.8469 0.8469 0.5318 -283.0467 315.4269)" fill="#FF9D73" width="1.5" height="2.595"/>
<rect x="136.405" y="408.263" transform="matrix(0.5318 -0.8469 0.8469 0.5318 -282.6273 307.9049)" fill="#FF9D73" width="1.5" height="2.595"/>
<rect x="129.812" y="404.122" transform="matrix(0.5318 -0.8469 0.8469 0.5318 -282.208 300.3829)" fill="#FF9D73" width="1.5" height="2.595"/>
<rect x="123.218" y="399.982" transform="matrix(0.5318 -0.8469 0.8469 0.5318 -281.7887 292.8608)" fill="#FF9D73" width="1.5" height="2.595"/>
<rect x="116.626" y="395.842" transform="matrix(0.5318 -0.8469 0.8469 0.5318 -281.3691 285.3392)" fill="#FF9D73" width="1.5" height="2.595"/>
<rect x="110.032" y="391.702" transform="matrix(0.5318 -0.8469 0.8469 0.5318 -280.9498 277.8171)" fill="#FF9D73" width="1.5" height="2.595"/>
<rect x="103.439" y="387.561" transform="matrix(0.5318 -0.8469 0.8469 0.5318 -280.5305 270.2951)" fill="#FF9D73" width="1.5" height="2.595"/>
<rect x="96.846" y="383.421" transform="matrix(0.5318 -0.8469 0.8469 0.5318 -280.1112 262.7731)" fill="#FF9D73" width="1.5" height="2.595"/>
<rect x="90.253" y="379.281" transform="matrix(0.5318 -0.8469 0.8469 0.5318 -279.6918 255.251)" fill="#FF9D73" width="1.5" height="2.595"/>
<rect x="83.659" y="375.141" transform="matrix(0.5318 -0.8469 0.8469 0.5318 -279.2725 247.729)" fill="#FF9D73" width="1.5" height="2.595"/>
<rect x="77.066" y="371" transform="matrix(0.5318 -0.8469 0.8469 0.5318 -278.8532 240.2069)" fill="#FF9D73" width="1.5" height="2.595"/>
<rect x="70.473" y="366.86" transform="matrix(0.5318 -0.8469 0.8469 0.5318 -278.4339 232.6849)" fill="#FF9D73" width="1.5" height="2.595"/>
<rect x="63.88" y="362.72" transform="matrix(0.5319 -0.8468 0.8468 0.5319 -278.0061 225.1424)" fill="#FF9D73" width="1.5" height="2.595"/>
<rect x="57.287" y="358.58" transform="matrix(0.5318 -0.8469 0.8469 0.5318 -277.6007 217.6546)" fill="#FF9D73" width="1.5" height="2.595"/>
<rect x="50.694" y="354.439" transform="matrix(0.5318 -0.8469 0.8469 0.5318 -277.1815 210.1323)" fill="#FF9D73" width="1.5" height="2.595"/>
<rect x="44.1" y="350.299" transform="matrix(0.5318 -0.8469 0.8469 0.5318 -276.7623 202.61)" fill="#FF9D73" width="1.5" height="2.595"/>
<rect x="37.507" y="346.159" transform="matrix(0.5318 -0.8469 0.8469 0.5318 -276.3431 195.0876)" fill="#FF9D73" width="1.5" height="2.595"/>
<rect x="30.914" y="342.019" transform="matrix(0.5318 -0.8469 0.8469 0.5318 -275.9178 187.5531)" fill="#FF9D73" width="1.5" height="2.595"/>
<rect x="24.321" y="337.878" transform="matrix(0.5318 -0.8469 0.8469 0.5318 -275.4985 180.0311)" fill="#FF9D73" width="1.5" height="2.595"/>
<rect x="17.727" y="333.738" transform="matrix(0.5318 -0.8469 0.8469 0.5318 -275.0791 172.509)" fill="#FF9D73" width="1.5" height="2.595"/>
<rect x="95.054" y="419.293" transform="matrix(0.5318 -0.8469 0.8469 0.5318 -319.0213 282.304)" fill="#FF9D73" width="1.5" height="20.761"/>
<rect x="73.077" y="405.492" transform="matrix(0.5318 -0.8469 0.8469 0.5318 -317.6254 257.2356)" fill="#FF9D73" width="1.5" height="20.761"/>
<rect x="51.099" y="391.691" transform="matrix(0.5318 -0.8469 0.8469 0.5318 -316.2256 232.1574)" fill="#FF9D73" width="1.5" height="20.761"/>
<rect x="29.122" y="377.89" transform="matrix(0.5318 -0.8469 0.8469 0.5318 -314.83 207.0884)" fill="#FF9D73" width="1.5" height="20.761"/>
<g>
	
		<rect x="42.318" y="484.333" transform="matrix(0.5318 -0.8469 0.8469 0.5318 -393.7253 265.3086)" fill="#B593FF" width="1.5" height="8.77"/>
</g>
<rect x="56.857" y="489.325" transform="matrix(0.5318 -0.8469 0.8469 0.5318 -394.6386 281.8733)" fill="#B593FF" width="1.5" height="17.044"/>
<path fill="#FF9D73" d="M627.519,301.881l-39.29-24.672l-0.798,1.271l38.845,24.393c0.288-0.127,0.575-0.257,0.862-0.385
	L627.519,301.881z"/>
<rect x="468.624" y="477.344" transform="matrix(0.5318 -0.8468 0.8468 0.5318 -186.6909 622.1807)" fill="#6FDAC9" width="1.5" height="5.19"/>
<rect x="459.833" y="471.824" transform="matrix(0.5318 -0.8469 0.8469 0.5318 -186.1247 612.1841)" fill="#6FDAC9" width="1.5" height="5.19"/>
<rect x="451.042" y="466.304" transform="matrix(0.5318 -0.8469 0.8469 0.5318 -185.5684 602.1419)" fill="#6FDAC9" width="1.5" height="5.19"/>
<rect x="442.251" y="460.783" transform="matrix(0.5318 -0.8469 0.8469 0.5318 -185.0067 592.125)" fill="#6FDAC9" width="1.5" height="5.19"/>
<rect x="433.46" y="455.263" transform="matrix(0.5318 -0.8469 0.8469 0.5318 -184.4477 582.0954)" fill="#6FDAC9" width="1.5" height="5.19"/>
<rect x="424.669" y="449.743" transform="matrix(0.5318 -0.8469 0.8469 0.5318 -183.8887 572.0659)" fill="#6FDAC9" width="1.5" height="5.19"/>
<rect x="415.878" y="444.222" transform="matrix(0.5318 -0.8469 0.8469 0.5318 -183.3295 562.0367)" fill="#6FDAC9" width="1.5" height="5.19"/>
<rect x="407.087" y="438.702" transform="matrix(0.5318 -0.8469 0.8469 0.5318 -182.7705 552.0071)" fill="#6FDAC9" width="1.5" height="5.19"/>
<rect x="398.296" y="433.182" transform="matrix(0.5318 -0.8469 0.8469 0.5318 -182.2115 541.9775)" fill="#6FDAC9" width="1.5" height="5.19"/>
<g opacity="0.5">
	<polygon fill="#ACA3D4" points="172.354,109.124 156.164,99.777 140.724,108.691 125.285,99.777 109.47,108.907 110.22,110.207 
		125.285,101.509 139.974,109.99 139.974,126.82 125.17,135.367 110.595,126.952 110.595,118.471 109.095,118.471 109.095,127.818 
		124.535,136.732 124.535,153.995 126.035,153.995 126.035,136.732 140.838,128.185 148.07,132.36 148.82,131.061 141.474,126.82 
		141.474,109.99 156.164,101.509 170.854,109.99 170.854,126.952 155.414,135.763 155.417,135.769 155.414,135.769 155.414,153.562 
		140.724,162.043 131.923,156.962 131.173,158.262 140.724,163.775 156.914,154.428 156.914,136.635 172.354,127.818 	"/>
	<path fill="#ACA3D4" d="M614.812,523.926L614.812,523.926c-3.114-3.114-8.182-3.114-11.296,0c-1.71,1.71-2.475,4.008-2.307,6.249
		l-17.782,5.081c-0.229-2.964-1.484-5.721-3.608-7.846c-2.194-2.194-5.01-3.39-7.885-3.605l4.145-17.093
		c0.868,0.309,1.776,0.472,2.687,0.472c2.046,0,4.091-0.779,5.648-2.336c3.114-3.114,3.114-8.182,0-11.296l0,0
		c-3.113-3.114-8.181-3.114-11.296,0c-1.509,1.509-2.34,3.515-2.34,5.648s0.831,4.14,2.34,5.648c0.482,0.482,1.014,0.88,1.575,1.213
		l-4.299,17.728c-2.994,0.143-5.947,1.34-8.228,3.622c-4.867,4.867-4.867,12.786,0,17.653c2.434,2.433,5.63,3.65,8.827,3.65
		s6.393-1.217,8.827-3.65c2.222-2.222,3.488-5.135,3.628-8.253l18.016-5.148c0.351,1.305,1.031,2.538,2.053,3.56
		c1.557,1.557,3.603,2.336,5.648,2.336c2.046,0,4.091-0.779,5.648-2.336C617.926,532.108,617.926,527.041,614.812,523.926z
		 M572.276,499.2c0-1.733,0.675-3.362,1.9-4.587c1.265-1.265,2.926-1.897,4.587-1.897c1.662,0,3.323,0.632,4.588,1.897
		c2.529,2.53,2.529,6.646,0,9.175c-2.53,2.53-6.646,2.529-9.175,0C572.951,502.562,572.276,500.933,572.276,499.2z M578.757,544.002
		c-4.282,4.282-11.249,4.283-15.532,0c-4.282-4.282-4.282-11.25,0-15.532c2.141-2.141,4.954-3.211,7.766-3.211
		s5.625,1.07,7.766,3.211c2.074,2.074,3.217,4.833,3.217,7.766S580.832,541.928,578.757,544.002z M613.751,534.162
		c-2.53,2.529-6.646,2.529-9.175,0c-2.529-2.53-2.529-6.646,0-9.175c1.265-1.265,2.926-1.897,4.587-1.897
		c1.662,0,3.323,0.632,4.588,1.897C616.28,527.516,616.28,531.632,613.751,534.162z"/>
	<g>
		<polygon fill="#ACA3D4" points="563.854,406.067 551.523,398.948 551.523,384.711 563.854,377.593 576.183,384.711 
			576.183,391.83 574.683,391.83 574.683,385.577 563.854,379.324 553.023,385.577 553.023,398.082 563.854,404.335 
			575.058,397.866 575.808,399.165 		"/>
	</g>
	<g>
		<polygon fill="#ACA3D4" points="592.438,65.965 580.109,58.846 580.109,44.609 592.438,37.49 604.768,44.609 604.768,51.728 
			603.268,51.728 603.268,45.475 592.438,39.222 581.609,45.475 581.609,57.98 592.438,64.233 603.643,57.764 604.393,59.063 		"/>
	</g>
	<path fill="#ACA3D4" d="M469.466,48.779c-1.69,0-3.244,0.579-4.488,1.541l-12.115-12.766c1.107-1.288,1.781-2.959,1.781-4.787
		c0-4.058-3.301-7.358-7.358-7.358c-4.057,0-7.358,3.301-7.358,7.358c0,4.057,3.301,7.358,7.358,7.358
		c1.69,0,3.244-0.579,4.488-1.54l12.116,12.766c-1.107,1.288-1.781,2.958-1.781,4.787c0,4.057,3.301,7.358,7.358,7.358
		c4.058,0,7.358-3.301,7.358-7.358C476.824,52.08,473.523,48.779,469.466,48.779z M441.428,32.768c0-3.23,2.628-5.858,5.858-5.858
		c3.23,0,5.858,2.628,5.858,5.858c0,3.23-2.628,5.858-5.858,5.858C444.056,38.625,441.428,35.998,441.428,32.768z M469.466,61.996
		c-3.23,0-5.858-2.628-5.858-5.858c0-3.23,2.628-5.858,5.858-5.858c3.23,0,5.858,2.628,5.858,5.858
		C475.324,59.368,472.696,61.996,469.466,61.996z"/>
	<g>
		<path fill="#ACA3D4" d="M236.389,502.894c-3.221,0-5.841-2.62-5.841-5.841s2.62-5.841,5.841-5.841c3.22,0,5.84,2.62,5.84,5.841
			S239.609,502.894,236.389,502.894z M236.389,492.712c-2.394,0-4.341,1.947-4.341,4.341s1.947,4.341,4.341,4.341
			c2.393,0,4.34-1.947,4.34-4.341S238.782,492.712,236.389,492.712z"/>
	</g>
	<g>
		<path fill="#ACA3D4" d="M74.576,199.167c-3.22,0-5.84-2.62-5.84-5.841s2.62-5.841,5.84-5.841c3.221,0,5.841,2.62,5.841,5.841
			S77.796,199.167,74.576,199.167z M74.576,188.986c-2.393,0-4.34,1.947-4.34,4.341s1.947,4.341,4.34,4.341
			c2.394,0,4.341-1.947,4.341-4.341S76.969,188.986,74.576,188.986z"/>
	</g>
	<g>
		<path fill="#ACA3D4" d="M720.495,525.254c-3.221,0-5.841-2.62-5.841-5.841s2.62-5.841,5.841-5.841s5.841,2.62,5.841,5.841
			S723.716,525.254,720.495,525.254z M720.495,515.073c-2.394,0-4.341,1.947-4.341,4.341s1.947,4.341,4.341,4.341
			s4.341-1.947,4.341-4.341S722.889,515.073,720.495,515.073z"/>
	</g>
	<g>
		<path fill="#ACA3D4" d="M473.887,151.555c-3.221,0-5.841-2.62-5.841-5.841s2.62-5.841,5.841-5.841c3.22,0,5.84,2.62,5.84,5.841
			S477.107,151.555,473.887,151.555z M473.887,141.374c-2.394,0-4.341,1.947-4.341,4.341s1.947,4.341,4.341,4.341
			c2.393,0,4.34-1.947,4.34-4.341S476.28,141.374,473.887,141.374z"/>
	</g>
	<g>
		<g>
			<rect x="708.794" y="396.4" fill="#ACA3D4" width="1.5" height="21.325"/>
		</g>
		<g>
			
				<rect x="693.139" y="404.41" transform="matrix(0.5 -0.866 0.866 0.5 -13.3664 808.9529)" fill="#ACA3D4" width="1.5" height="23.284"/>
		</g>
		<g>
			
				<rect x="682.86" y="396.8" transform="matrix(0.866 -0.5 0.5 0.866 -105.8266 400.1405)" fill="#ACA3D4" width="21.833" height="1.5"/>
		</g>
		<g>
			<rect x="708.794" y="396.4" fill="#ACA3D4" width="1.5" height="21.325"/>
		</g>
		<g>
			
				<rect x="693.139" y="404.41" transform="matrix(0.5 -0.866 0.866 0.5 -13.3664 808.9529)" fill="#ACA3D4" width="1.5" height="23.284"/>
		</g>
		<g>
			
				<rect x="682.86" y="396.8" transform="matrix(0.866 -0.5 0.5 0.866 -105.8266 400.1405)" fill="#ACA3D4" width="21.833" height="1.5"/>
		</g>
		<g>
			<path fill="#ACA3D4" d="M709.544,393.955c-1.43,0-2.775-0.557-3.786-1.568c-2.087-2.088-2.087-5.484,0-7.572
				c1.011-1.011,2.356-1.568,3.786-1.568s2.774,0.557,3.786,1.568l0,0c0,0,0,0,0,0c1.011,1.011,1.568,2.356,1.568,3.786
				c0,1.43-0.557,2.775-1.568,3.786S710.975,393.955,709.544,393.955z M709.544,384.747c-1.029,0-1.998,0.401-2.726,1.129
				c-1.502,1.503-1.502,3.948,0,5.45c1.456,1.456,3.995,1.456,5.451,0c0.728-0.728,1.129-1.696,1.129-2.725
				c0-1.029-0.401-1.997-1.129-2.725v0C711.542,385.148,710.574,384.747,709.544,384.747z"/>
		</g>
		<g>
			<path fill="#ACA3D4" d="M677.746,412.122c-1.431,0-2.775-0.557-3.786-1.568c-2.087-2.088-2.087-5.484,0-7.572
				c1.011-1.011,2.355-1.568,3.786-1.568c1.43,0,2.774,0.557,3.786,1.568c2.087,2.087,2.087,5.484,0,7.572
				C680.521,411.565,679.176,412.122,677.746,412.122z M677.746,402.914c-1.03,0-1.998,0.401-2.726,1.129
				c-1.502,1.503-1.502,3.948,0,5.451c1.456,1.456,3.995,1.456,5.451,0c1.502-1.503,1.502-3.948,0-5.451
				C679.743,403.315,678.775,402.914,677.746,402.914z"/>
		</g>
		<g>
			<path fill="#ACA3D4" d="M709.544,430.458c-1.43,0-2.775-0.557-3.786-1.568c-2.087-2.088-2.087-5.484,0-7.572
				c1.011-1.011,2.356-1.568,3.786-1.568s2.774,0.557,3.786,1.568l0,0c0,0,0,0,0,0c1.011,1.011,1.568,2.356,1.568,3.786
				c0,1.43-0.557,2.775-1.568,3.786S710.975,430.458,709.544,430.458z M709.544,421.25c-1.029,0-1.998,0.401-2.726,1.129
				c-1.502,1.503-1.502,3.948,0,5.45c1.456,1.456,3.995,1.456,5.451,0c0.728-0.728,1.129-1.696,1.129-2.725
				c0-1.03-0.401-1.997-1.129-2.725v0C711.542,421.651,710.574,421.25,709.544,421.25z"/>
		</g>
	</g>
	<g>
		<g>
			
				<rect x="162.078" y="536.894" transform="matrix(0.4406 -0.8977 0.8977 0.4406 -400.462 452.5019)" fill="#ACA3D4" width="1.5" height="21.325"/>
		</g>
		<g>
			
				<rect x="152.36" y="564.821" transform="matrix(0.8303 -0.5573 0.5573 0.8303 -287.3414 187.343)" fill="#ACA3D4" width="23.284" height="1.5"/>
		</g>
		<g>
			
				<rect x="146.592" y="546.605" transform="matrix(0.9977 -0.0673 0.0673 0.9977 -37.1972 11.1835)" fill="#ACA3D4" width="1.5" height="21.832"/>
		</g>
		<g>
			
				<rect x="162.078" y="536.894" transform="matrix(0.4406 -0.8977 0.8977 0.4406 -400.462 452.5019)" fill="#ACA3D4" width="1.5" height="21.325"/>
		</g>
		<g>
			
				<rect x="152.36" y="564.821" transform="matrix(0.8303 -0.5573 0.5573 0.8303 -287.3414 187.343)" fill="#ACA3D4" width="23.284" height="1.5"/>
		</g>
		<g>
			
				<rect x="146.592" y="546.605" transform="matrix(0.9977 -0.0673 0.0673 0.9977 -37.1972 11.1835)" fill="#ACA3D4" width="1.5" height="21.832"/>
		</g>
		<g>
			<path fill="#ACA3D4" d="M146.25,544.78c-0.807,0-1.608-0.184-2.354-0.55c-1.284-0.63-2.246-1.722-2.708-3.076
				s-0.37-2.806,0.26-4.09c0.63-1.284,1.723-2.246,3.076-2.708c2.794-0.954,5.843,0.542,6.797,3.336
				c0.955,2.794-0.542,5.843-3.335,6.798C147.418,544.684,146.833,544.78,146.25,544.78z M146.252,535.569
				c-0.412,0-0.831,0.067-1.242,0.207c-0.975,0.333-1.761,1.025-2.214,1.949s-0.52,1.97-0.188,2.944
				c0.333,0.974,1.025,1.76,1.949,2.214c0.924,0.453,1.97,0.52,2.944,0.187c2.011-0.687,3.088-2.882,2.401-4.893
				C149.356,536.578,147.855,535.569,146.252,535.569z"/>
		</g>
		<g>
			<path fill="#ACA3D4" d="M148.551,581.33c-0.807,0-1.609-0.185-2.354-0.55c-1.284-0.63-2.246-1.722-2.708-3.076
				s-0.37-2.806,0.26-4.09c0.63-1.284,1.723-2.245,3.076-2.708c2.795-0.954,5.843,0.542,6.797,3.336
				c0.955,2.794-0.542,5.843-3.335,6.797C149.719,581.234,149.134,581.33,148.551,581.33z M148.552,572.119
				c-0.412,0-0.831,0.067-1.242,0.207c-0.975,0.333-1.761,1.025-2.214,1.949c-0.454,0.924-0.52,1.97-0.188,2.944
				c0.333,0.974,1.025,1.761,1.949,2.214c0.924,0.453,1.97,0.52,2.944,0.187c2.011-0.687,3.088-2.882,2.401-4.893
				C151.656,573.128,150.155,572.119,148.552,572.119z"/>
		</g>
		<g>
			<path fill="#ACA3D4" d="M179.021,560.862c-0.807,0-1.609-0.185-2.354-0.55c-1.284-0.63-2.246-1.722-2.708-3.076
				s-0.37-2.806,0.26-4.09c0.63-1.284,1.722-2.246,3.075-2.708h0c2.792-0.954,5.843,0.542,6.797,3.336
				c0.955,2.794-0.542,5.843-3.335,6.798C180.188,560.766,179.604,560.862,179.021,560.862z M177.779,551.858
				c-0.975,0.333-1.761,1.025-2.214,1.949c-0.453,0.924-0.52,1.97-0.187,2.944c0.333,0.974,1.025,1.761,1.949,2.214
				c0.924,0.453,1.97,0.52,2.944,0.187c2.011-0.687,3.088-2.882,2.401-4.893C181.985,552.248,179.789,551.172,177.779,551.858
				L177.779,551.858z"/>
		</g>
	</g>
</g>
<path fill="#B593FF" d="M636.079,124.708l0.798-1.271l-9.339-5.864c-0.026,0.041-0.05,0.083-0.076,0.125
	c-0.241,0.383-0.491,0.757-0.735,1.138L636.079,124.708z"/>
<path fill="#B593FF" d="M745.241,191.485l-0.798,1.271l5.749,3.61c0.242-0.382,0.494-0.754,0.735-1.138
	c0.026-0.042,0.051-0.083,0.077-0.124L745.241,191.485z"/>
<path fill="#E7E4F2" d="M600.783,148.623l126.205,79.251c0.327-0.385,0.654-0.77,0.979-1.157l-126-79.123
	C601.573,147.938,601.18,148.284,600.783,148.623z"/>
<path fill="#6FDAC9" d="M652.986,225.713l-0.798,1.271l46.839,29.413c0.392-0.346,0.79-0.682,1.18-1.03L652.986,225.713z"/>
<path fill="#FF9D73" d="M563.42,171.241l46.502,29.202l0.798-1.271l-45.603-28.636C564.552,170.772,563.988,171.012,563.42,171.241z
	"/>
<path fill="#6FDAC9" d="M580.562,318.474l-72.674-45.637l-0.798,1.271l71.455,44.871
	C579.218,318.816,579.889,318.642,580.562,318.474z"/>
<polygon fill="#B593FF" points="514.713,323.205 513.916,324.475 524.573,331.167 526.649,330.699 "/>
<path fill="#FF9D73" d="M481.55,532.78L312.571,426.668l0.484,2.076l168.548,105.841C481.585,533.983,481.572,533.381,481.55,532.78
	z"/>
<path fill="#E6E3F1" d="M471.428,618.584l-135.77-85.258c0.043,0.614,0.078,1.228,0.113,1.843l135.244,84.927
	C471.158,619.593,471.287,619.087,471.428,618.584z"/>
<g>
	
		<rect x="402.736" y="612.505" transform="matrix(0.5318 -0.8469 0.8469 0.5318 -338.5908 633.3305)" fill="#FF9D73" width="1.5" height="20.761"/>
	
		<rect x="380.759" y="598.704" transform="matrix(0.5318 -0.8469 0.8469 0.5318 -337.193 608.2662)" fill="#FF9D73" width="1.5" height="20.761"/>
	
		<rect x="358.781" y="584.903" transform="matrix(0.5318 -0.8469 0.8469 0.5318 -335.7951 583.1839)" fill="#FF9D73" width="1.5" height="20.761"/>
	<path fill="#FF9D73" d="M346.744,586.368l-15.066-9.461c-0.131,0.505-0.275,1.008-0.413,1.512l14.681,9.219L346.744,586.368z"/>
</g>
<g>
	
		<rect x="347.94" y="633.258" transform="matrix(0.5318 -0.8469 0.8469 0.5318 -374.1292 592.3881)" fill="#B593FF" width="1.5" height="2.595"/>
	
		<rect x="341.347" y="629.118" transform="matrix(0.5318 -0.8469 0.8469 0.5318 -373.7099 584.866)" fill="#B593FF" width="1.5" height="2.595"/>
	
		<rect x="334.754" y="624.978" transform="matrix(0.5318 -0.8469 0.8469 0.5318 -373.2903 577.3444)" fill="#B593FF" width="1.5" height="2.595"/>
	
		<rect x="328.161" y="620.838" transform="matrix(0.5318 -0.8469 0.8469 0.5318 -372.871 569.8223)" fill="#B593FF" width="1.5" height="2.595"/>
	
		<rect x="321.568" y="616.697" transform="matrix(0.5318 -0.8469 0.8469 0.5318 -372.4517 562.3003)" fill="#B593FF" width="1.5" height="2.595"/>
	<path fill="#B593FF" d="M316.424,615.18l0.798-1.27l-0.995-0.625c-0.26,0.427-0.516,0.856-0.781,1.281L316.424,615.18z"/>
</g>
<path fill="#6FDAC9" d="M86.748,469.181l-45.279-28.433l-0.798,1.27l45.264,28.424C86.202,470.018,86.476,469.601,86.748,469.181z"
	/>
<path fill="#FF9D73" d="M109.389,437.319l-0.798,1.27l3.023,1.898c0.396-0.344,0.797-0.681,1.196-1.02L109.389,437.319z"/>
<polygon fill="#6FDAC9" points="192.78,397.524 191.982,398.794 200.33,404.037 202.407,403.57 "/>
<polygon fill="#6FDAC9" points="223.819,370.936 223.021,372.206 254.366,391.889 256.443,391.422 "/>
<path fill="#FF9D73" d="M110.499,301.546l0.798-1.27l-23.843-14.973c-0.553,0.242-1.105,0.486-1.656,0.731L110.499,301.546z"/>
<polygon fill="#FF9D73" points="251.427,250.032 243.436,245.014 241.358,245.48 250.629,251.302 "/>
<polygon fill="#FF9D73" points="573.75,268.116 459.583,196.424 457.507,196.892 572.952,269.387 "/>
<polygon fill="#5F4AA0" points="472.585,342.83 451.852,329.81 452.34,331.888 470.508,343.296 "/>
<polygon fill="#E7E4F2" points="426.919,223.765 500.54,269.995 501.337,268.725 427.031,222.063 426.659,222.656 "/>
<polygon fill="#FF9D73" points="261.11,257.097 260.821,255.931 255.055,252.31 254.257,253.581 260.756,257.661 "/>
<polygon fill="#6FDAC9" points="274.595,311.416 274.372,310.521 272.737,309.494 271.939,310.764 274.137,312.144 "/>
<path fill="#E7E4F2" d="M288.287,366.574l-0.363-1.463l-152.596-95.825l-1.799,0.404c-0.09,0.022-0.179,0.047-0.269,0.069
	l154.785,97.199L288.287,366.574z"/>
<polygon fill="#FF9D73" points="376.249,420.575 300.059,372.731 300.54,374.805 375.451,421.846 "/>
<polygon fill="#B593FF" points="275.508,266.925 275.554,266.954 276.352,265.683 275.252,264.993 275.112,265.217 "/>
<polygon fill="#E7E4F2" points="462.681,428.771 288.216,319.214 287.796,319.883 288.024,320.865 463.164,430.845 "/>
<polygon fill="#E7E4F2" points="437.639,320.885 416.569,307.654 415.771,308.924 438.12,322.958 "/>
<polygon fill="#6FDAC9" points="425.25,267.469 425.13,266.95 249.972,156.958 250.455,159.032 424.652,268.421 "/>
<polygon fill="#5F4AA0" points="412.621,213.014 410.741,211.834 409.943,213.104 413.101,215.087 "/>
<polygon fill="#6FDAC9" points="262.706,211.034 262.584,211.228 262.992,212.985 283.453,225.834 284.251,224.563 "/>
<g>
	<g>
		
			<rect x="455.607" y="344.116" transform="matrix(0.9756 -0.2194 0.2194 0.9756 -64.3724 110.107)" fill="#B593FF" width="15.843" height="1.5"/>
	</g>
	<g>
		
			<rect x="154.191" y="252.56" transform="matrix(0.9756 -0.2194 0.2194 0.9756 -50.5462 51.4535)" fill="#B593FF" width="104.408" height="1.5"/>
	</g>
	<g>
		<path fill="#B593FF" d="M79.063,289.95l-0.647-1.353c11.123-5.322,22.717-9.963,34.462-13.795l0.465,1.426
			C101.661,280.039,90.127,284.656,79.063,289.95z"/>
	</g>
	<g>
		<path fill="#B593FF" d="M2.51,343.978l-1.059-1.062c18.66-18.592,39.866-34.462,63.029-47.169l0.722,1.315
			C42.163,309.701,21.07,325.486,2.51,343.978z"/>
	</g>
	<g>
		<path fill="#B593FF" d="M463.234,645.494l-1.396-0.547c13.236-33.806,19.675-69.428,19.138-105.877l1.5-0.022
			C483.015,575.693,476.541,611.506,463.234,645.494z"/>
	</g>
	<g>
		<path fill="#B593FF" d="M480.299,523.274c-0.548-7.728-1.428-15.537-2.615-23.212l1.482-0.229
			c1.193,7.715,2.078,15.566,2.628,23.335L480.299,523.274z"/>
	</g>
	<g>
		
			<rect x="413.044" y="187.843" transform="matrix(0.9741 -0.2259 0.2259 0.9741 -38.5697 99.1272)" fill="#B593FF" width="1.5" height="60.457"/>
	</g>
	<g>
		
			<rect x="455.16" y="332.245" transform="matrix(0.9741 -0.2259 0.2259 0.9741 -78.5084 113.338)" fill="#B593FF" width="1.5" height="134.842"/>
	</g>
	<g>
		<path fill="#B593FF" d="M402.677,173.46l-4.003-17.262l-19.63-84.408c-1.695-8.657-2.556-17.483-2.564-26.26l1.5-0.001
			c0.008,8.68,0.859,17.41,2.53,25.947l23.628,101.645L402.677,173.46z"/>
	</g>
	<g>
		<path fill="#B593FF" d="M378.829,30.302l-1.49-0.168c1.121-9.927,3.347-19.738,6.617-29.162l1.417,0.492
			C382.139,10.782,379.938,20.485,378.829,30.302z"/>
	</g>
	<g>
		<path fill="#B593FF" d="M621.538,127.629l-1.199-0.902c2.279-3.03,4.462-6.202,6.489-9.429
			c12.232-19.478,19.298-41.87,20.436-64.752l1.498,0.074c-1.15,23.139-8.295,45.78-20.663,65.476
			C626.049,121.359,623.842,124.566,621.538,127.629z"/>
	</g>
	<g>
		<path fill="#B593FF" d="M541.327,178.788l-0.315-1.466c26.721-5.747,50.718-19.183,69.397-38.855l1.088,1.033
			C592.608,159.391,568.344,172.977,541.327,178.788z"/>
	</g>
	<g>
		<path fill="#B593FF" d="M65.964,535.981l-1.498-0.073c0.151-3.106,0.413-6.247,0.777-9.335l1.489,0.176
			C66.373,529.802,66.114,532.909,65.964,535.981z"/>
	</g>
	<g>
		<path fill="#B593FF" d="M69.348,511.866l-1.46-0.343c1.518-6.471,3.534-12.885,5.991-19.064l1.394,0.554
			C72.843,499.124,70.85,505.467,69.348,511.866z"/>
	</g>
	<g>
		<path fill="#B593FF" d="M81.681,479.228l-1.322-0.708c1.484-2.773,3.092-5.54,4.776-8.223
			c18.614-29.643,47.582-50.762,81.567-59.468l5.283-1.188l0.329,1.463l-5.261,1.183c-33.589,8.605-62.238,29.492-80.647,58.807
			C84.739,473.749,83.149,476.485,81.681,479.228z"/>
	</g>
	<g>
		<path fill="#B593FF" d="M300.391,635.486l-1.1-1.02c5.702-6.146,10.87-12.889,15.361-20.041
			c19.457-30.983,25.421-67.688,16.794-103.351l-0.813-3.493l1.461-0.34l0.812,3.487c8.721,36.054,2.689,73.167-16.983,104.495
			C311.382,622.453,306.157,629.271,300.391,635.486z"/>
	</g>
	<g>
		
			<rect x="323.465" y="461.011" transform="matrix(0.974 -0.2267 0.2267 0.974 -99.6198 85.905)" fill="#B593FF" width="1.5" height="31.36"/>
	</g>
	<g>
		<polygon fill="#B593FF" points="316.362,446.259 312.437,429.395 293.657,348.457 295.118,348.118 317.823,445.919 		"/>
	</g>
	<g>
		<path fill="#B593FF" d="M240.57,119.864l-3.498-15.03c-5.567-25.909-7.484-52.391-5.7-78.725l1.496,0.101
			c-1.774,26.194,0.133,52.537,5.668,78.296l3.495,15.018L240.57,119.864z"/>
	</g>
	<g>
		<path fill="#B593FF" d="M486.196,340.538l-0.329-1.463l86.248-19.39c11.292-2.45,22.539-5.623,33.434-9.433l0.495,1.416
			c-10.952,3.83-22.258,7.02-33.605,9.482L486.196,340.538z"/>
	</g>
	<g>
		<path fill="#B593FF" d="M661.522,285.199l-0.789-1.275c19.802-12.258,38.014-26.968,54.131-43.722l1.081,1.04
			C699.741,258.086,681.431,272.875,661.522,285.199z"/>
	</g>
</g>
</svg>
